{
  "unpublishedPage": {
    "name": "Page1",
    "slug": "page1",
    "layouts": [
      {
        "viewMode": false,
        "dsl": {
          "widgetName": "MainContainer",
          "backgroundColor": "none",
          "rightColumn": 4896,
          "snapColumns": 64,
          "detachFromLayout": true,
          "widgetId": "0",
          "topRow": 0,
          "bottomRow": 1290,
          "containerStyle": "none",
          "snapRows": 125,
          "parentRowSpace": 1,
          "type": "CANVAS_WIDGET",
          "canExtend": true,
          "version": 71,
          "minHeight": 1292,
          "dynamicTriggerPathList": [],
          "parentColumnSpace": 1,
          "dynamicBindingPathList": [],
          "leftColumn": 0,
          "children": [
            {
              "boxShadow": "{{appsmith.theme.boxShadow.appBoxShadow}}",
              "widgetName": "Echarts1",
              "allowScroll": false,
              "displayName": "Echarts",
              "iconSVG": "/static/media/icon.d639d74ea3f095d6be69c6db4b415df6.svg",
              "searchTags": [
                "graph",
                "echart",
                "chart",
                "visualisations"
              ],
              "topRow": 21,
              "bottomRow": 53,
              "parentRowSpace": 10,
              "customEchartConfig": {
                "title": {
                  "text": "基础折线图"
                },
                "xAxis": {
                  "type": "category",
                  "data": [
                    "Mon",
                    "Tue",
                    "Wed",
                    "Thu",
                    "Fri",
                    "Sat",
                    "Sun"
                  ]
                },
                "yAxis": {
                  "type": "value"
                },
                "series": [
                  {
                    "data": [
                      150,
                      230,
                      224,
                      218,
                      135,
                      147,
                      260
                    ],
                    "type": "line"
                  }
                ]
              },
              "type": "ECHART_WIDGET",
              "hideCard": false,
              "chartData": {
                "lacugivz0i": {
                  "type": "line",
                  "seriesName": "秋季系列",
                  "data": [
                    {
                      "value": 335,
                      "name": "衬衫"
                    },
                    {
                      "value": 234,
                      "name": "羊毛衫"
                    },
                    {
                      "value": 1548,
                      "name": "雪纺衫"
                    },
                    {
                      "value": 758,
                      "name": "裤子"
                    },
                    {
                      "value": 358,
                      "name": "高跟鞋"
                    },
                    {
                      "value": 658,
                      "name": "袜子"
                    }
                  ]
                }
              },
              "animateLoading": true,
              "fontFamily": "{{appsmith.theme.fontFamily.appFont}}",
              "parentColumnSpace": 19.3125,
              "dynamicTriggerPathList": [],
              "leftColumn": 12,
              "dynamicBindingPathList": [
                {
                  "key": "borderRadius"
                },
                {
                  "key": "boxShadow"
                },
                {
                  "key": "accentColor"
                },
                {
                  "key": "fontFamily"
                }
              ],
              "mycustom": 2,
              "key": "h0omlshupy",
              "isDeprecated": false,
              "rightColumn": 36,
              "widgetId": "20wwl5w9pf",
              "accentColor": "{{appsmith.theme.colors.primaryColor}}",
              "isVisible": true,
              "version": 1,
              "parentId": "0",
              "renderMode": "CANVAS",
              "isLoading": false,
              "yAxisName": "金额",
              "chartName": "",
              "borderRadius": "{{appsmith.theme.borderRadius.appBorderRadius}}",
              "xAxisName": "类型",
              "chartType": "LINE_CHART"
            }
          ]
        },
        "layoutOnLoadActions": [],
        "layoutOnLoadActionErrors": [],
        "validOnPageLoadActions": true,
        "id": "Page1",
        "deleted": false,
        "policies": [],
        "userPermissions": []
      }
    ],
    "userPermissions": [],
    "policies": []
  },
  "deleted": false,
  "gitSyncId": "64f03d486fbfd93d5cd5a2bc_64f03d486fbfd93d5cd5a2be"
}